"Order #","Shipping Method","First Name","Last Name","Address 1","Address 2","City","State","Postal Code","Country","Phone Number","Gift Message or Order Notes","Product SKU","Quantity","Unit Weight","Product Description","Unit Price","Pick Location (bin location)","Carrier Shipper","Insured Value","Delivery Confirmation","Signature Confirmation","Adult Signature Confirmation","COD_Indicator","COD_Amount","Billed Shipping Cost","Tax Billed to Customer","Customer Number (IBO Number)","Order Time","Current Month","Language","EMAIL"
"39506","Priority Mail","Mateo","Hernandez","2130 W 29th Place","","LOS ANGELES","CA","90018","USA","","","septiembre-2012-cep-spanish","1.000000","1.00000000","Septiembre 2012-CEP Spanish","54.9000000000","","Express 1","","","","","","","6.3000000000","0E-10","4166397","2012-09-07 15:49:02","September","spanish","ibosupport@myefinity.com"
"39505","Priority Mail","clara","nolasco","18 4th st apt. #3","","brooklyn","NY","11231","USA","","","business-builder-kit","1.000000","1.58000000","Business Builder Kit (English)","39.9500000000","","Express 1","","","","","","","8.0500000000","0E-10","4586282","2012-09-07 15:40:56","September","english","ibosupport@myefinity.com"
"39467","Priority Mail","MARIA DEL CARMEN","PEREZ RAMIREZ","800 college dr unit 17","","vineland","NJ","08360","USA","","","spanish-business-builder-kit","1.000000","1.50000000","Business Builder Kit (Spanish)","39.9500000000","","Express 1","","","","","","","8.0500000000","0E-10","6489824","2012-09-07 07:19:22","September","spanish","ibosupport@myefinity.com"
"39469","Priority Mail","DIANA","BELLO","1510 67 street","","North Bergen","NJ","07047","USA","","","subscription-traditional-book-spanish","1.000000","1.00000000","Subscription: Traditional + Book Spanish","70.9000000000","","Express 1","","","","","","","8.0500000000","0E-10","6175044","2012-09-07 08:52:38","September","spanish","ibosupport@myefinity.com"
"39469","Priority Mail","DIANA","BELLO","1510 67 street","","North Bergen","NJ","07047","USA","","","Agosto-2012-cep-spanish","1.000000","1.00000000","Agosto 2012-CEP Spanish","54.9000000000","","Express 1","","","","","","","8.0500000000","0E-10","6175044","2012-09-07 08:52:38","September","spanish","ibosupport@myefinity.com"
"39471","Priority Mail","Vilma","Lopez","5724 Sunbury Drive","","Alexandria","VA","22303","USA","","","capitalismo-solidario","1.000000","0.34000000","Capitalismo Solidario","15.9500000000","","Express 1","","","","","","","5.5000000000","0E-10","3584095","2012-09-07 09:38:45","September","english","ibosupport@myefinity.com"
"39473","Priority Mail","Juan Bruno","Aguirre","185 SW 7th Street","Unit # 1814","Miami","FL","33130","USA","","","a-plan-for-a-bright-future-flipchart-dvd","1.000000","0.18000000","A Plan For a Bright Future! (Flipchart & DVD)","24.9500000000","","Express 1","","","","","","","0E-10","3.4930000000","6190588","2012-09-07 09:45:29","September","english","ibosupport@myefinity.com"
"39473","Priority Mail","Juan Bruno","Aguirre","185 SW 7th Street","Unit # 1814","Miami","FL","33130","USA","","","un-plan-para-un-futuro-brillante-laminas-dvd","1.000000","0.18000000","Un plan para un futuro brillante! (Laminas & DVD)","24.9500000000","","Express 1","","","","","","","0E-10","3.4930000000","6190588","2012-09-07 09:45:29","September","spanish","ibosupport@myefinity.com"
"39475","Priority Mail","Benigno","Huestipa","53 W Corbett Rd.","","Montgomery","NY","12549","USA","","","capitalismo-solidario","1.000000","0.34000000","Capitalismo Solidario","15.9500000000","","Express 1","","","","","","","5.5000000000","0E-10","4580128","2012-09-07 10:02:57","September","english","ibosupport@myefinity.com"
"39486","Priority Mail","Christian","Sanchez","10 Santa Cruz","Cond River Park Apt O105","Bayamon","PR","00961","USA","","","como-ganar-amigos-e-influir-sobre-las-personas-por-dale-carnegie","1.000000","0.18000000","Como ganar amigos, e influir sobre las personas, Por Dale Carnegie","11.9500000000","","Express 1","","","","","","","5.6500000000","0E-10","6310177","2012-09-07 12:42:15","September","spanish","ibosupport@myefinity.com"
"39486","Priority Mail","Christian","Sanchez","10 Santa Cruz","Cond River Park Apt O105","Bayamon","PR","00961","USA","","","padre-rico-padre-pobre-por-robert-kiyosaki","1.000000","0.34000000","Padre rico, padre pobre, Por Robert Kiyosaki","14.9500000000","","Express 1","","","","","","","5.6500000000","0E-10","6310177","2012-09-07 12:42:15","September","spanish","ibosupport@myefinity.com"
"39486","Priority Mail","Christian","Sanchez","10 Santa Cruz","Cond River Park Apt O105","Bayamon","PR","00961","USA","","","el-mapa-para-alcanzar-el-exito-por-john-c-maxwell","1.000000","0.18000000","El mapa para alcanzar el exito, Por John C. Maxwell","11.9500000000","","Express 1","","","","","","","5.6500000000","0E-10","6310177","2012-09-07 12:42:15","September","spanish","ibosupport@myefinity.com"
"39511","Priority Mail","Esperanza","Mejia","1509 tivoli ct apt E","","Raleigh","NC","27604","USA","","","un-plan-para-un-futuro-brillante-laminas-dvd","1.000000","0.18000000","Un plan para un futuro brillante! (Laminas & DVD)","24.9500000000","","Express 1","","","","","","","5.3500000000","0E-10","6395766","2012-09-07 16:08:15","September","spanish","ibosupport@myefinity.com"
"39515","Priority Mail","hector","dominguez","751 walton ave apt A68","","bronx","NY","10451","USA","","","capitalismo-solidario","4.000000","1.36000000","Capitalismo Solidario","15.9500000000","","Express 1","","","","","","","8.0500000000","0E-10","4639080","2012-09-07 17:00:11","September","english","ibosupport@myefinity.com"
"39518","Priority Mail","Jaiyoung","Sun","101 johnson street po 272","Eduardo Mejia ID 0475156","brooklyn","NY","11201","USA","","","a-plan-for-a-bright-future-flipchart-dvd","1.000000","0.18000000","A Plan For a Bright Future! (Flipchart & DVD)","24.9500000000","","Express 1","","","","","","","5.5000000000","0E-10","6486854","2012-09-07 18:54:01","September","english","ibosupport@myefinity.com"
"39522","Priority Mail","Liz","Bon","2729 Oklahoma St.","","West Palm Beach","FL","33406","USA","","","capitalismo-solidario","1.000000","0.34000000","Capitalismo Solidario","15.9500000000","","Express 1","","","","","","","5.2000000000","1.4805000000","5787869","2012-09-07 20:18:44","September","english","ibosupport@myefinity.com"
"39532","Priority Mail","ALINA","ARCIA","420 nw 39 ave","","Miami","FL","33126","USA","","","actitud-de-exelencia-by-willie-jolley","1.000000","0.18000000","Actitud de Exelencia, Por Willie Jolley","11.9500000000","","Express 1","","","","","","","5.2500000000","1.2040000000","6477257","2012-09-08 13:52:17","September","spanish","ibosupport@myefinity.com"
"39539","Priority Mail","inejilsa ","reyes","19 bradlee st apt 2","dorchester  ma 02124","boston","MA","02124","USA","","","spanish-business-builder-kit","1.000000","1.50000000","Business Builder Kit (Spanish)","39.9500000000","","Express 1","","","","","","","8.7500000000","0E-10","6491414","2012-09-08 19:14:06","September","spanish","ibosupport@myefinity.com"
"39539","Priority Mail","inejilsa ","reyes","19 bradlee st apt 2","dorchester  ma 02124","boston","MA","02124","USA","","","a-plan-for-a-bright-future-flipchart-dvd","1.000000","0.18000000","A Plan For a Bright Future! (Flipchart & DVD)","24.9500000000","","Express 1","","","","","","","8.7500000000","0E-10","6491414","2012-09-08 19:14:06","September","english","ibosupport@myefinity.com"
"39543","Priority Mail","Luis","Leon","1521 Green Ave."," Apt 2","Brooklyn","NY","11237","USA","","","una-vida-emprendedora-por-jay-van-andel","10.000000","1.80000000","Una vida emprendedora, Por Jay Van Andel","15.9500000000","","Express 1","","","","","","","8.0500000000","0E-10","5170849","2012-09-08 19:58:37","September","spanish","ibosupport@myefinity.com"
"39545","Priority Mail","William","Cardona","Hc-03 Box 8702","","Lares","PR","00669","USA","","","septiembre-2012-cep-spanish","1.000000","1.00000000","Septiembre 2012-CEP Spanish","54.9000000000","","Express 1","","","","","","","10.9500000000","0E-10","1127787","2012-09-08 20:31:03","September","spanish","ibosupport@myefinity.com"
"39545","Priority Mail","William","Cardona","Hc-03 Box 8702","","Lares","PR","00669","USA","","","spanish-business-builder-kit","1.000000","1.50000000","Business Builder Kit (Spanish)","39.9500000000","","Express 1","","","","","","","10.9500000000","0E-10","1127787","2012-09-08 20:31:03","September","spanish","ibosupport@myefinity.com"
"39550","Priority Mail","jose ","rivera","3680 ricky ln","","st cloud","FL","34772","USA","","","spanish-business-builder-kit","1.000000","1.50000000","Business Builder Kit (Spanish)","39.9500000000","","Express 1","","","","","","","5.3000000000","3.1675000000","6491634","2012-09-09 00:40:08","September","spanish","ibosupport@myefinity.com"
"39572","UPS Ground","LUIS","CENTENO","1867 STANHOPE ST APT 2","","RIDGEWOOD","NY","11385","USA","","","spanish-business-builder-kit","1.000000","1.50000000","Business Builder Kit (Spanish)","39.9500000000","","UPS Online","","","","","","","10.5400000000","0E-10","5723716","2012-09-09 21:47:34","September","spanish","ibosupport@myefinity.com"
"39572","UPS Ground","LUIS","CENTENO","1867 STANHOPE ST APT 2","","RIDGEWOOD","NY","11385","USA","","","capitalismo-solidario","1.000000","0.34000000","Capitalismo Solidario","15.9500000000","","UPS Online","","","","","","","10.5400000000","0E-10","5723716","2012-09-09 21:47:34","September","english","ibosupport@myefinity.com"
"39572","UPS Ground","LUIS","CENTENO","1867 STANHOPE ST APT 2","","RIDGEWOOD","NY","11385","USA","","","septiembre-2012-cep-spanish","1.000000","1.00000000","Septiembre 2012-CEP Spanish","54.9000000000","","UPS Online","","","","","","","10.5400000000","0E-10","5723716","2012-09-09 21:47:34","September","spanish","ibosupport@myefinity.com"
"39572","UPS Ground","LUIS","CENTENO","1867 STANHOPE ST APT 2","","RIDGEWOOD","NY","11385","USA","","","una-vida-emprendedora-por-jay-van-andel","1.000000","0.18000000","Una vida emprendedora, Por Jay Van Andel","15.9500000000","","UPS Online","","","","","","","10.5400000000","0E-10","5723716","2012-09-09 21:47:34","September","spanish","ibosupport@myefinity.com"
